>>> 25/9/2012

BUY PACKAGE: 10.000 SMS

url:
http://180.214.232.99/pro/api/selfcare/package/buy

variable:
{"lang":"en","pkgid":"MAU+FREESMSONNET4","password":"099ac4e3265e947d4e2f5b7e3d62609a","token":"368309167654321","msisdn":"NjI4OTY3NTAxNDk4MQ==","username":"odpaltermyth"}

feedback:
{"code":"1004","message":"Sorry, system is under maintenance. Try again later.","data":null}



BUY PACKAGE: 10 GB

url:
http://180.214.232.99/pro/api/selfcare/package/buy

variable:
{"username":"odpaltermyth","lang":"en","pkgid":"9203","msisdn":"NjI4OTY3NTAxNDk4MQ==","token":"449223053826901","password":"099ac4e3265e947d4e2f5b7e3d62609a"}

feedback:
{"code":"200","message":"success","data":"Terimakasih. Transaksi Paket  kamu sedang diproses"}




SIGNIN

url:
http://180.214.232.99/pro/sso/signin

variable:
{"secret_key":"77ceb455acf632c7","password":"cXdlcnR5","msisdn":"NjI4OTY3NTAxNDk4MQ==","lang":"id"}

result:
{"code":"200","message":"berhasil","data":{"token":"172756016924011","msisdn":"NjI4OTY3NTAxNDk4MQ==","email":"","language":"en","ui":{"promo":{"image":null,"text":"test","direction":"1","id":"1003"},"balance":{"balance":"IDR 1,040","content":[{"key":"Off-Net","value":"IDR 0"},{"key":"On-Net","value":"IDR 0"},{"key":"Total balance","value":"IDR 1,040"}]},"validity":{"validity":"0 Days"},"msisdn":{"content":[{"key":"Card validity","value":"579 Days"}]},"data":{"pkgname":"  AON-12 month-50MB Monthly","quota_initial":50,"percentage":2,"color":-1,"th_quota":"0","content":[{"key":"Remaining quota","value":"1 MB"},{"key":"Validity","value":"0 Day"}]},"data_night":null,"free":{"validity":"0 Days","sites":[{"name":"detik","url":"detik.com","image_url":"8"},{"name":"kompas","url":"www.kompas.com","image_url":"13"},{"name":"facebook","url":"www.facebook.com","image_url":"14"},{"name":"klikbca","url":"www.klikbca.com","image_url":"15"},{"name":"tokobagus","url":"www.tokobagus.com","image_url":"16"},{"name":"okezone","url":"www.okezone.com","image_url":"17"},{"name":"kaskus","url":"www.kaskus.co.id","image_url":"18"},{"name":"vivanews","url":"news.viva.co.id","image_url":"19"},{"name":"ebuddy","url":"www.ebuddy.com","image_url":"20"},{"name":"google","url":"www.google.com","image_url":"21"}]},"blackberry":{"percentage":100,"color":1,"content":[{"key":"Package name","value":"BIS Social Daily"},{"key":"Price","value":"IDR 1,980"},{"key":"Validity","value":"2 Day"}]},"voice_onnet":null,"voice_offnet":null,"sms_onnet":null,"sms_offnet":null,"notification":{"unread":"146"}}}}

